{
    "__timestamp": "2017-08-03T14:13:53.798",
    "__resource_type": "ResourceProvider",
    "name": "fallback",
    "type": "blades",
    "metrics": {
        "__timestamp": "2017-08-03T14:13:53.798",
        "__resource_type": "ResourceProviderMetrics",
        "num_requests": 3,
        "num_requests_deferred": 1,
        "num_requests_expired": 0,
        "num_requests_failed": 0
    },
    "node_pool": {
        "__timestamp": "2017-08-03T14:13:53.798",
        "__resource_type": "NodePool",
        "is_homogeneous": true,
        "capacity": {
            "cpu": "16000m",
            "memory": "16384MB"
        },
        "pending": {
            "cpu": "0m",
            "memory": "0MB"
        },
        "num_used_nodes": 1,
        "num_unused_nodes": 0,
        "num_healthy_nodes": 1,
        "num_unhealthy_nodes": 0,
        "num_nodes": 1,
        "nodes": [
            {
                "__timestamp": "2017-08-03T14:13:53.798",
                "__resource_type": "Node",
                "id": "localhost:8080",
                "healthy": true,
                "used": true,
                "uptime": "PT6M39.666S",
                "unused_time": "PT0S",
                "capacity": {
                    "cpu": "16000m",
                    "memory": "16384MB"
                }
            }
        ]
    },
    "node_allocator": {
        "__timestamp": "2017-08-03T14:13:53.799",
        "__resource_type": "NodeAllocatorBLADES",
        "config": {
            "__timestamp": "2017-08-03T14:13:53.799",
            "__resource_type": "NodeAllocatorConfigBLADES",
            "healthcheck": {
                "url_template": "http://{{address}}/emucomp/health",
                "connect_timeout": "PT10S",
                "read_timeout": "PT5S",
                "failure_timeout": "PT2M",
                "interval": "PT30S",
                "num_parallel_requests": 4
            },
            "node_capacity": {
                "cpu": "16000m",
                "memory": "16384MB"
            },
            "node_addresses": [
                "localhost:8080"
            ]
        },
        "node_capacity": {
            "cpu": "16000m",
            "memory": "16384MB"
        },
        "num_used_nodes": 1,
        "used_nodes": [
            {
                "__timestamp": "2017-08-03T14:13:53.799",
                "__resource_type": "NodeInfo",
                "id": "localhost:8080",
                "state": "REACHABLE",
                "healthcheck_url": "http://localhost:8080/emucomp/health",
                "metadata": []
            }
        ],
        "num_free_nodes": 0,
        "free_nodes": [],
        "num_failed_nodes": 0,
        "failed_nodes": []
    },
    "resource_allocator": {
        "__timestamp": "2017-08-03T14:13:53.800",
        "__resource_type": "ResourceAllocator",
        "capacity": {
            "cpu": "16000m",
            "memory": "16384MB"
        },
        "free_resources": {
            "cpu": "14000m",
            "memory": "15360MB"
        },
        "used_resources": {
            "cpu": "2000m",
            "memory": "1024MB"
        },
        "num_allocations": 2,
        "num_nodes": 1,
        "nodes": [
            {
                "__timestamp": "2017-08-03T14:13:53.800",
                "__resource_type": "NodeInfo",
                "id": "localhost:8080",
                "free_resources": {
                    "cpu": "14000m",
                    "memory": "15360MB"
                },
                "num_allocations": 2,
                "allocations": [
                    {
                        "id": "d0f3b0f3-9d11-4475-8a25-252d30342588",
                        "spec": {
                            "cpu": "1000m",
                            "memory": "512MB"
                        }
                    },
                    {
                        "id": "4e932dc2-e537-4f0d-bcb1-ab31184d7fdd",
                        "spec": {
                            "cpu": "1000m",
                            "memory": "512MB"
                        }
                    }
                ]
            }
        ],
        "index": {
            "__timestamp": "2017-08-03T14:13:53.800",
            "__resource_type": "ResourceIndex",
            "num_entries": 1,
            "entries": [
                {
                    "key": 60129542159360,
                    "num_nodes": 1,
                    "nodes": [
                        "localhost:8080"
                    ]
                }
            ]
        }
    },
    "allocation_requests": {
        "__timestamp": "2017-08-03T14:13:53.801",
        "__resource_type": "AllocationRequestQueue",
        "resources_sum": {
            "cpu": "0m",
            "memory": "0MB"
        },
        "num_entries": 0,
        "entries": []
    }
}
